@startuml

title __GS-MULTI-MODULE's Component Diagram__\n

  [gs-multi-module-app] --> [gs-multi-module-api]
  [gs-multi-module-app] --> [gs-multi-module-impl]
  [gs-multi-module-app] --> [gs-multi-module-rest]
  [gs-multi-module-app] --> [gs-multi-module-ext]
  [gs-multi-module-app] --> [gs-multi-module-spi]
  [gs-multi-module-ext] --> [gs-multi-module-spi]
  [gs-multi-module-impl] --> [gs-multi-module-api]
  [gs-multi-module-impl] --> [gs-multi-module-spi]
  [gs-multi-module-rest] --> [gs-multi-module-api]


right footer


PlantUML diagram generated by SketchIt! (https://bitbucket.org/pmesmeur/sketch.it)
For more information about this tool, please contact philippe.mesmeur@gmail.com
endfooter

@enduml
