@startuml

title __APP's Class Diagram__\n

  package org.pmesmeur.springboot.training.app {
    class DemoApplication {
        {static} + main()
    }
  }
  



right footer


PlantUML diagram generated by SketchIt! (https://bitbucket.org/pmesmeur/sketch.it)
For more information about this tool, please contact philippe.mesmeur@gmail.com
endfooter

@enduml
