@startuml

title __EXT's Class Diagram__\n

  package org.pmesmeur.springboot.training.ext {
    class Provider {
        - callIndex : int
        + provide()
    }
  }
  

  Provider -up-|> IProvider


right footer


PlantUML diagram generated by SketchIt! (https://bitbucket.org/pmesmeur/sketch.it)
For more information about this tool, please contact philippe.mesmeur@gmail.com
endfooter

@enduml
