@startuml

title __GS-MULTI-MODULE-REST's Class Diagram__\n

  package org.pmesmeur.springboot.training.app {
    class RestEndpoint {
    }
  }
  

  RestEndpoint o-- IService : service


right footer


PlantUML diagram generated by SketchIt! (https://bitbucket.org/pmesmeur/sketch.it)
For more information about this tool, please contact philippe.mesmeur@gmail.com
endfooter

@enduml
